Lab 05
…
We convert it into a tibble for easy handling by tidyverse.

gavote <- gavote %>% 
  as_tibble(rownames = "county") %>%
  print(width = Inf)

## # A tibble: 159 × 11
##    county   equip econ   perAA rural atlanta     gore  bush other votes ballots
##    <chr>    <fct> <fct>  <dbl> <fct> <fct>      <int> <int> <int> <int>   <int>
##  1 APPLING  LEVER poor   0.182 rural notAtlanta  2093  3940    66  6099    6617
##  2 ATKINSON LEVER poor   0.23  rural notAtlanta   821  1228    22  2071    2149
##  3 BACON    LEVER poor   0.131 rural notAtlanta   956  2010    29  2995    3347
##  4 BAKER    OS-CC poor   0.476 rural notAtlanta   893   615    11  1519    1607
##  5 BALDWIN  LEVER middle 0.359 rural notAtlanta  5893  6041   192 12126   12785
##  6 BANKS    LEVER middle 0.024 rural notAtlanta  1220  3202   111  4533    4773
##  7 BARROW   OS-CC middle 0.079 urban notAtlanta  3657  7925   520 12102   12522
##  8 BARTOW   OS-PC middle 0.079 urban Atlanta     7508 14720   552 22780   23735
##  9 BEN.HILL OS-PC poor   0.282 rural notAtlanta  2234  2381    46  4661    5741
## 10 BERRIEN  OS-CC poor   0.107 rural notAtlanta  1640  2718    52  4410    4475
## # … with 149 more rows

Each row is a county in GA.

The number of votes, votes, can be smaller than the number of ballots, ballots, because a vote is not recorded if (1) the person fails to vote for President, (2) votes for more than one candidate, or (3) the equipment fails to record the vote.

We are interested in the undercount, which is defined as (ballots - votes) / ballots. Does it depend on the type of voting machine equip, economy econ, percentage of African Americans perAA, whether the county is rural or urban rural, or whether the county is part of Atlanta metropolitan area atlanta.

Let’s create a new variable undercount

gavote <- gavote %>%
  mutate(undercount = (ballots - votes) / ballots) %>%
  print(width = Inf)

## # A tibble: 159 × 12
##    county   equip econ   perAA rural atlanta     gore  bush other votes ballots
##    <chr>    <fct> <fct>  <dbl> <fct> <fct>      <int> <int> <int> <int>   <int>
##  1 APPLING  LEVER poor   0.182 rural notAtlanta  2093  3940    66  6099    6617
##  2 ATKINSON LEVER poor   0.23  rural notAtlanta   821  1228    22  2071    2149
##  3 BACON    LEVER poor   0.131 rural notAtlanta   956  2010    29  2995    3347
##  4 BAKER    OS-CC poor   0.476 rural notAtlanta   893   615    11  1519    1607
##  5 BALDWIN  LEVER middle 0.359 rural notAtlanta  5893  6041   192 12126   12785
##  6 BANKS    LEVER middle 0.024 rural notAtlanta  1220  3202   111  4533    4773
##  7 BARROW   OS-CC middle 0.079 urban notAtlanta  3657  7925   520 12102   12522
##  8 BARTOW   OS-PC middle 0.079 urban Atlanta     7508 14720   552 22780   23735
##  9 BEN.HILL OS-PC poor   0.282 rural notAtlanta  2234  2381    46  4661    5741
## 10 BERRIEN  OS-CC poor   0.107 rural notAtlanta  1640  2718    52  4410    4475
##    undercount
##         <dbl>
##  1     0.0783
##  2     0.0363
##  3     0.105 
##  4     0.0548
##  5     0.0515
##  6     0.0503
##  7     0.0335
##  8     0.0402
##  9     0.188 
## 10     0.0145
## # … with 149 more rows

For factor rural, we found the variable name is same as one level in this factor. To avoid confusion, we rename it to usage.

We also want to standardize the counts gore and bush according to the total votes.

(gavote <- gavote %>%
  rename(usage = rural) %>%
  mutate(pergore = gore / votes, perbush = bush / votes)) %>%
  print(width = Inf)

## # A tibble: 159 × 14
##    county   equip econ   perAA usage atlanta     gore  bush other votes ballots
##    <chr>    <fct> <fct>  <dbl> <fct> <fct>      <int> <int> <int> <int>   <int>
##  1 APPLING  LEVER poor   0.182 rural notAtlanta  2093  3940    66  6099    6617
##  2 ATKINSON LEVER poor   0.23  rural notAtlanta   821  1228    22  2071    2149
##  3 BACON    LEVER poor   0.131 rural notAtlanta   956  2010    29  2995    3347
##  4 BAKER    OS-CC poor   0.476 rural notAtlanta   893   615    11  1519    1607
##  5 BALDWIN  LEVER middle 0.359 rural notAtlanta  5893  6041   192 12126   12785
##  6 BANKS    LEVER middle 0.024 rural notAtlanta  1220  3202   111  4533    4773
##  7 BARROW   OS-CC middle 0.079 urban notAtlanta  3657  7925   520 12102   12522
##  8 BARTOW   OS-PC middle 0.079 urban Atlanta     7508 14720   552 22780   23735
##  9 BEN.HILL OS-PC poor   0.282 rural notAtlanta  2234  2381    46  4661    5741
## 10 BERRIEN  OS-CC poor   0.107 rural notAtlanta  1640  2718    52  4410    4475
##    undercount pergore perbush
##         <dbl>   <dbl>   <dbl>
##  1     0.0783   0.343   0.646
##  2     0.0363   0.396   0.593
##  3     0.105    0.319   0.671
##  4     0.0548   0.588   0.405
##  5     0.0515   0.486   0.498
##  6     0.0503   0.269   0.706
##  7     0.0335   0.302   0.655
##  8     0.0402   0.330   0.646
##  9     0.188    0.479   0.511
## 10     0.0145   0.372   0.616
## # … with 149 more rows
…
cor(predict(lmod), gavote$undercount)^2

## [1] 0.05308861

A model with both quantitative and qualitative predictors

Now we also want to include factors equip and usage, and interaction between pergore and usage into the model.

Before that, we first center the pergore and perAA variables.

gavote <- gavote %>%
   mutate(cpergore = pergore - mean(pergore), cperAA = perAA - mean(perAA)) %>%
   print(width = Inf)

## # A tibble: 159 × 16
##    county   equip econ   perAA usage atlanta     gore  bush other votes ballots
##    <chr>    <fct> <fct>  <dbl> <fct> <fct>      <int> <int> <int> <int>   <int>
##  1 APPLING  LEVER poor   0.182 rural notAtlanta  2093  3940    66  6099    6617
##  2 ATKINSON LEVER poor   0.23  rural notAtlanta   821  1228    22  2071    2149
##  3 BACON    LEVER poor   0.131 rural notAtlanta   956  2010    29  2995    3347
##  4 BAKER    OS-CC poor   0.476 rural notAtlanta   893   615    11  1519    1607
##  5 BALDWIN  LEVER middle 0.359 rural notAtlanta  5893  6041   192 12126   12785
##  6 BANKS    LEVER middle 0.024 rural notAtlanta  1220  3202   111  4533    4773
##  7 BARROW   OS-CC middle 0.079 urban notAtlanta  3657  7925   520 12102   12522
##  8 BARTOW   OS-PC middle 0.079 urban Atlanta     7508 14720   552 22780   23735
##  9 BEN.HILL OS-PC poor   0.282 rural notAtlanta  2234  2381    46  4661    5741
## 10 BERRIEN  OS-CC poor   0.107 rural notAtlanta  1640  2718    52  4410    4475
##    undercount pergore perbush cpergore  cperAA
##         <dbl>   <dbl>   <dbl>    <dbl>   <dbl>
##  1     0.0783   0.343   0.646  -0.0652 -0.0610
##  2     0.0363   0.396   0.593  -0.0119 -0.0130
##  3     0.105    0.319   0.671  -0.0891 -0.112 
##  4     0.0548   0.588   0.405   0.180   0.233 
##  5     0.0515   0.486   0.498   0.0777  0.116 
##  6     0.0503   0.269   0.706  -0.139  -0.219 
##  7     0.0335   0.302   0.655  -0.106  -0.164 
##  8     0.0402   0.330   0.646  -0.0787 -0.164 
##  9     0.188    0.479   0.511   0.0710  0.0390
## 10     0.0145   0.372   0.616  -0.0364 -0.136 
## # … with 149 more rows
…
